<svg width="24" height="22" viewBox="0 0 24 22" fill="none" xmlns="http://www.w3.org/2000/svg">
<path d="M11.8938 2.03005L12.072 2.1689L12.2547 2.03587C13.5764 1.07331 15.2218 0.550237 16.8677 0.550237C18.6187 0.550237 20.3312 1.26777 21.5654 2.54291C24.412 5.55533 24.4103 10.2922 21.5677 13.2613L21.5303 13.2988L13.4524 21.096L13.4524 21.096L13.4485 21.0999C12.6494 21.9 11.3402 21.9 10.5411 21.0999L10.5412 21.0998L10.5378 21.0966L2.46187 13.2596C-0.422612 10.2467 -0.419407 5.51239 2.46419 2.5446L2.46427 2.54452C3.86606 1.10069 5.74614 0.3 7.74664 0.3C9.02941 0.3 10.4234 0.884851 11.8938 2.03005ZM19.6162 11.3517L19.6223 11.3459L19.628 11.3397C21.4011 9.43108 21.4014 6.41542 19.5844 4.50654C18.8564 3.73241 17.8171 3.32844 16.7844 3.32844H16.7427V3.3283L16.7336 3.32857C15.2831 3.37259 13.9609 3.94599 12.9487 4.95958C12.3995 5.50952 11.5068 5.50952 10.9576 4.95958L10.9576 4.95955L10.9539 4.95589C10.3383 4.3607 9.74636 3.89556 9.19883 3.57755C8.65519 3.2618 8.13315 3.0782 7.66334 3.0782C6.41536 3.0782 5.25675 3.5702 4.36907 4.4591L4.36893 4.45897L4.36172 4.46672C2.54821 6.41562 2.54492 9.43188 4.36408 11.3424L4.36387 11.3426L4.37336 11.3517L11.7868 18.4835L11.9948 18.6836L12.2028 18.4835L19.6162 11.3517Z" fill="#DD2B1C" stroke="white" stroke-width="0.6"/>
</svg>
