<svg width="8" height="8" viewBox="0 0 8 8" fill="none" xmlns="http://www.w3.org/2000/svg">
<path d="M0.295961 4.556V3.464H3.43196V0.0199993H4.57996V3.464H7.70196V4.556H4.57996V8H3.43196V4.556H0.295961Z" fill="#282C3A"/>
</svg>
