<svg width="14" height="14" viewBox="0 0 14 14" fill="none" xmlns="http://www.w3.org/2000/svg">
<path d="M6.99935 12.8334C10.221 12.8334 12.8327 10.2217 12.8327 7.00008C12.8327 3.77842 10.221 1.16675 6.99935 1.16675C3.77769 1.16675 1.16602 3.77842 1.16602 7.00008C1.16602 10.2217 3.77769 12.8334 6.99935 12.8334Z" stroke="#757482" stroke-linecap="round" stroke-linejoin="round"/>
<path d="M7 3.5V7L9.33333 8.16667" stroke="#757482" stroke-linecap="round" stroke-linejoin="round"/>
</svg>
